<svg width="20" height="20" viewBox="0 0 20 20" fill="none" xmlns="http://www.w3.org/2000/svg">
<g clip-path="url(#clip0)">
<path d="M17.845 1.5625H2.155C0.966644 1.5625 0 2.52914 0 3.7175V16.2695C0 17.4579 0.966644 18.4245 2.155 18.4245H17.845C19.0334 18.4245 20 17.4579 20 16.2695V3.7175C20 2.52914 19.0334 1.5625 17.845 1.5625V1.5625ZM18.8281 16.2695C18.8281 16.8117 18.3871 17.2527 17.845 17.2527H2.155C1.61285 17.2527 1.17188 16.8117 1.17188 16.2695V3.7175C1.17188 3.17535 1.61285 2.73438 2.155 2.73438H17.845C18.3871 2.73438 18.8281 3.17535 18.8281 3.7175V16.2695Z" fill="#333333"/>
<path d="M16.2763 4.70068H3.72412C3.40063 4.70068 3.13818 4.96298 3.13818 5.28662C3.13818 5.61011 3.40063 5.87256 3.72412 5.87256H16.2763C16.5998 5.87256 16.8622 5.61011 16.8622 5.28662C16.8622 4.96298 16.5998 4.70068 16.2763 4.70068Z" fill="#333333"/>
<path d="M4.35156 7.83862C4.02808 7.83862 3.76562 8.10092 3.76562 8.42456V14.7007C3.76562 15.0241 4.02808 15.2866 4.35156 15.2866C4.6752 15.2866 4.9375 15.0241 4.9375 14.7007V8.42456C4.9375 8.10092 4.6752 7.83862 4.35156 7.83862Z" fill="#333333"/>
<path d="M10 7.83862C9.67636 7.83862 9.41406 8.10092 9.41406 8.42456V14.7007C9.41406 15.0241 9.67636 15.2866 10 15.2866C10.3236 15.2866 10.5859 15.0241 10.5859 14.7007V8.42456C10.5859 8.10092 10.3236 7.83862 10 7.83862Z" fill="#333333"/>
<path d="M15.6484 7.83862C15.3248 7.83862 15.0625 8.10092 15.0625 8.42456V14.7007C15.0625 15.0241 15.3248 15.2866 15.6484 15.2866C15.9719 15.2866 16.2344 15.0241 16.2344 14.7007V8.42456C16.2344 8.10092 15.9719 7.83862 15.6484 7.83862Z" fill="#333333"/>
<path d="M7.48941 7.83862H6.86182C6.53818 7.83862 6.27588 8.10092 6.27588 8.42456V14.7007C6.27588 15.0241 6.53818 15.2866 6.86182 15.2866H7.48941C7.8129 15.2866 8.07535 15.0241 8.07535 14.7007V8.42456C8.07535 8.10092 7.81305 7.83862 7.48941 7.83862Z" fill="#333333"/>
<path d="M13.1378 7.83862H12.5103C12.1868 7.83862 11.9243 8.10092 11.9243 8.42456V14.7007C11.9243 15.0241 12.1868 15.2866 12.5103 15.2866H13.1378C13.4615 15.2866 13.7238 15.0241 13.7238 14.7007V8.42456C13.7238 8.10092 13.4615 7.83862 13.1378 7.83862V7.83862Z" fill="#333333"/>
</g>
<defs>
<clipPath id="clip0">
<rect width="20" height="20" fill="white"/>
</clipPath>
</defs>
</svg>
