<svg width="24" height="24" viewBox="0 0 24 24" fill="none" xmlns="http://www.w3.org/2000/svg">
<path d="M1 12C1 12 5 4 12 4C19 4 23 12 23 12C23 12 19 20 12 20C5 20 1 12 1 12Z" stroke="url(#paint0_linear)" stroke-width="2" stroke-linecap="round" stroke-linejoin="round"/>
<path d="M12 15C13.6569 15 15 13.6569 15 12C15 10.3431 13.6569 9 12 9C10.3431 9 9 10.3431 9 12C9 13.6569 10.3431 15 12 15Z" stroke="url(#paint1_linear)" stroke-width="2" stroke-linecap="round" stroke-linejoin="round"/>
<defs>
<linearGradient id="paint0_linear" x1="3.56667" y1="20" x2="23.4128" y2="12.1345" gradientUnits="userSpaceOnUse">
<stop stop-color="#2955D9"/>
<stop offset="1" stop-color="#6D4AFB"/>
</linearGradient>
<linearGradient id="paint1_linear" x1="9.7" y1="15" x2="15.4824" y2="13.3333" gradientUnits="userSpaceOnUse">
<stop stop-color="#2955D9"/>
<stop offset="1" stop-color="#6D4AFB"/>
</linearGradient>
</defs>
</svg>
