<svg width="60" height="60" viewBox="0 0 60 60" fill="none" xmlns="http://www.w3.org/2000/svg">
<path d="M30.0001 36.5215C25.1375 36.5215 20.5057 38.581 17.2892 42.1732C16.8092 42.7106 16.8548 43.5337 17.3909 44.015C17.6388 44.238 17.9505 44.3476 18.2609 44.3476C18.6183 44.3476 18.9757 44.2015 19.2327 43.9132C21.9548 40.8728 25.8796 39.1302 30.0001 39.1302C34.1218 39.1302 38.0466 40.8728 40.7675 43.9132C41.2475 44.4506 42.0731 44.495 42.6092 44.015C43.1453 43.535 43.1909 42.7106 42.7109 42.1732C39.4957 38.5824 34.864 36.5215 30.0001 36.5215Z" fill="#333333"/>
<path d="M30 0C13.457 0 0 13.4583 0 30C0 46.5417 13.457 60 30 60C46.543 60 60 46.5417 60 30C60 13.4583 46.543 0 30 0ZM30 57.3913C14.897 57.3913 2.6087 45.1043 2.6087 30C2.6087 14.8957 14.897 2.6087 30 2.6087C45.103 2.6087 57.3913 14.8957 57.3913 30C57.3913 45.1043 45.103 57.3913 30 57.3913Z" fill="#333333"/>
<path d="M45.6522 20.8701C44.9309 20.8701 44.3479 21.4545 44.3479 22.1745C44.3479 24.3319 42.5922 26.0875 40.4348 26.0875C38.2774 26.0875 36.5218 24.3319 36.5218 22.1745C36.5218 21.4545 35.9387 20.8701 35.2174 20.8701C34.4961 20.8701 33.9131 21.4545 33.9131 22.1745C33.9131 25.7706 36.8387 28.6962 40.4348 28.6962C44.0309 28.6962 46.9566 25.7706 46.9566 22.1745C46.9566 21.4545 46.3735 20.8701 45.6522 20.8701Z" fill="#333333"/>
<path d="M26.0869 22.1745C26.0869 21.4545 25.5039 20.8701 24.7826 20.8701C24.0613 20.8701 23.4782 21.4545 23.4782 22.1745C23.4782 24.3319 21.7226 26.0875 19.5652 26.0875C17.4078 26.0875 15.6522 24.3319 15.6522 22.1745C15.6522 21.4545 15.0691 20.8701 14.3478 20.8701C13.6265 20.8701 13.0435 21.4545 13.0435 22.1745C13.0435 25.7706 15.9691 28.6962 19.5652 28.6962C23.1613 28.6962 26.0869 25.7706 26.0869 22.1745Z" fill="#333333"/>
</svg>
