<svg width="39" height="20" viewBox="0 0 39 20" fill="none" xmlns="http://www.w3.org/2000/svg">
<path d="M0.833333 10.8333C0.375 10.8333 0 11.2083 0 11.6667C0 12.125 0.375 12.5 0.833333 12.5H3.38333L2.71667 16.5333C2.675 16.775 2.74167 17.025 2.9 17.2083C3.05833 17.3917 3.29167 17.5 3.53333 17.5H7.61667C7.99167 18.9333 9.28333 20 10.8333 20C12.3833 20 13.675 18.9333 14.05 17.5H25.95C26.325 18.9333 27.6167 20 29.1667 20C30.7167 20 32.0083 18.9333 32.3833 17.5H35C35.3333 17.5 35.6333 17.3 35.7667 16.9917L38.2667 11.1583C38.375 10.9 38.35 10.6 38.1917 10.3667L33.1917 2.86667C33.0417 2.64167 32.775 2.5 32.5 2.5H28.3333V0.833333C28.3333 0.375 27.9583 0 27.5 0H6.1C5.68333 0 5.33333 0.3 5.275 0.708334L4.76667 4.16667H0.833333C0.375 4.16667 0 4.54167 0 5C0 5.45833 0.375 5.83333 0.833333 5.83333H4.49167L4.21667 7.5H0.833333C0.375 7.5 0 7.875 0 8.33333C0 8.79167 0.375 9.16667 0.833333 9.16667H3.94167L3.66667 10.8333H0.833333ZM10.8333 18.3333C9.91667 18.3333 9.16667 17.5833 9.16667 16.6667C9.16667 15.75 9.91667 15 10.8333 15C11.75 15 12.5 15.75 12.5 16.6667C12.5 17.5833 11.75 18.3333 10.8333 18.3333ZM29.1667 18.3333C28.25 18.3333 27.5 17.5833 27.5 16.6667C27.5 15.75 28.25 15 29.1667 15C30.0833 15 30.8333 15.75 30.8333 16.6667C30.8333 17.5833 30.0833 18.3333 29.1667 18.3333ZM34.45 15.8333H32.3833C32.0083 14.4 30.7167 13.3333 29.1667 13.3333C27.6167 13.3333 26.325 14.4 25.95 15.8333H25V10.9833L27.0083 5.45833L27.5083 8.475C27.575 8.875 27.925 9.16667 28.3333 9.16667H35.3833L36.55 10.9167L34.45 15.8333ZM34.275 7.5H29.0417L28.4833 4.16667H32.05L34.275 7.5ZM5.63333 9.16667H10C10.4583 9.16667 10.8333 8.79167 10.8333 8.33333C10.8333 7.875 10.4583 7.5 10 7.5H5.90833L6.18333 5.83333H11.6667C12.125 5.83333 12.5 5.45833 12.5 5C12.5 4.54167 12.125 4.16667 11.6667 4.16667H6.45L6.825 1.66667H26.6167L23.3833 10.55C23.35 10.6417 23.3333 10.7333 23.3333 10.8333V15.8333H14.05C13.675 14.4 12.3833 13.3333 10.8333 13.3333C9.28333 13.3333 7.99167 14.4 7.61667 15.8333H4.51667L5.075 12.5H8.33333C8.79167 12.5 9.16667 12.125 9.16667 11.6667C9.16667 11.2083 8.79167 10.8333 8.33333 10.8333H5.35L5.63333 9.16667Z" fill="url(#paint0_linear)"/>
<defs>
<linearGradient id="paint0_linear" x1="4.47215" y1="20" x2="35.1276" y2="3.06463" gradientUnits="userSpaceOnUse">
<stop stop-color="#2955D9"/>
<stop offset="1" stop-color="#6D4AFB"/>
</linearGradient>
</defs>
</svg>
