<svg width="152" height="133" viewBox="0 0 152 133" fill="none" xmlns="http://www.w3.org/2000/svg">
<path fill-rule="evenodd" clip-rule="evenodd" d="M70.3184 0.315886C88.7622 1.86432 103.051 14.0575 115.319 27.9437C128.764 43.1611 143.179 59.8312 140.725 80.006C138.019 102.26 123.879 124.018 102.741 131.367C83.2306 138.151 65.2065 122.21 46.9015 112.628C29.8191 103.686 9.48797 97.5074 3.18742 79.2568C-3.77709 59.083 0.934432 35.7485 14.7516 19.5006C28.1199 3.78048 49.7789 -1.40849 70.3184 0.315886Z" fill="#F8F6FF"/>
<g clip-path="url(#clip0)">
<path d="M39.1797 94.6328H52.3633L54.8243 92.875L57.6368 94.6328H70.8204C72.2765 94.6328 73.4571 95.8134 73.4571 97.2695V118.363C73.4571 119.819 72.2765 121 70.8204 121H39.1797C37.7236 121 36.543 119.819 36.543 118.363V97.2695C36.543 95.8134 37.7236 94.6328 39.1797 94.6328ZM24.9079 53.0389C25.241 52.0136 26.1649 51.2943 27.2407 51.2228L45.6805 49.9976L52.5488 32.6654C52.9471 31.6601 53.9188 31 55 31C56.0813 31 57.053 31.6601 57.4513 32.6654L64.3194 49.9976L82.7592 51.2228C83.835 51.2943 84.7589 52.0134 85.092 53.0389C85.4253 54.0643 85.1005 55.1893 84.2722 55.8794L70.0699 67.713L74.6042 85.6342C74.8688 86.6794 74.4701 87.7803 73.5979 88.414C72.7257 89.0477 71.5555 89.0866 70.643 88.5121L57.6368 80.3221L55 82.5039L52.3633 80.3221L39.3567 88.5123C38.4376 89.0911 37.2676 89.0431 36.4019 88.4142C35.5296 87.7805 35.1311 86.6796 35.3955 85.6344L39.9298 67.7131L25.7275 55.8796C24.8994 55.1893 24.5748 54.0643 24.9079 53.0389V53.0389Z" fill="url(#paint0_linear)"/>
<path d="M52.3633 80.3221L55 78.6619L57.6367 80.3221V94.6328H52.3633V80.3221ZM49.7266 105.18H60.2734C61.7296 105.18 62.9102 106.36 62.9102 107.816C62.9102 109.273 61.7296 110.453 60.2734 110.453H49.7266C48.2704 110.453 47.0898 109.273 47.0898 107.816C47.0898 106.36 48.2704 105.18 49.7266 105.18ZM19.7342 72.5306L29.7648 69.2714C31.1505 68.8213 32.6373 69.5794 33.0873 70.9644C33.5373 72.3494 32.7795 73.8368 31.3945 74.2868L21.3639 77.546C19.9766 77.9967 18.4906 77.2357 18.0415 75.8531C17.5915 74.4681 18.3493 72.9806 19.7342 72.5306ZM30.2235 31.6594C31.4098 30.8147 33.0562 31.0919 33.9006 32.2783L40.0999 40.9867C40.9445 42.173 40.6673 43.8194 39.481 44.6638C38.2964 45.5072 36.6497 45.233 35.8038 44.0449L29.6045 35.3365C28.7601 34.1502 29.0373 32.504 30.2235 31.6594V31.6594ZM80.2352 69.2714L90.2658 72.5306C91.6507 72.9806 92.4085 74.4681 91.9585 75.8531C91.5094 77.2352 90.0241 77.9967 88.6361 77.546L78.6055 74.2868C77.2205 73.8368 76.4627 72.3494 76.9127 70.9644C77.3625 69.5794 78.8497 68.8214 80.2352 69.2714V69.2714ZM76.0994 32.2783C76.9438 31.0919 78.5898 30.8149 79.7765 31.6594C80.9629 32.5038 81.2399 34.1502 80.3955 35.3365L74.1962 44.0449C73.35 45.2337 71.7031 45.5065 70.519 44.6638C69.3327 43.8194 69.0556 42.173 69.9001 40.9867L76.0994 32.2783Z" fill="url(#paint1_linear)"/>
</g>
<g clip-path="url(#clip1)">
<path fill-rule="evenodd" clip-rule="evenodd" d="M140.836 61.0166C139.128 63.7863 136.788 66.1262 134.018 67.8352L143.777 77.5942C145.659 79.477 148.712 79.477 150.595 77.5942C150.595 77.594 150.595 77.5939 150.595 77.5938C152.478 75.711 152.478 72.6584 150.595 70.7756L140.836 61.0166ZM123.114 30.9927C112.561 30.9927 103.994 39.5603 103.994 50.1132C103.994 60.6661 112.561 69.2336 123.114 69.2336C133.667 69.2336 142.235 60.6661 142.235 50.1132C142.235 39.5603 133.667 30.9927 123.114 30.9927V30.9927ZM123.114 37.5687C130.038 37.5687 135.659 43.1897 135.659 50.1132C135.659 57.0367 130.038 62.6576 123.114 62.6576C116.191 62.6576 110.57 57.0367 110.57 50.1132C110.57 43.1897 116.191 37.5687 123.114 37.5687V37.5687Z" fill="black"/>
</g>
<defs>
<linearGradient id="paint0_linear" x1="55" y1="121" x2="55" y2="31" gradientUnits="userSpaceOnUse">
<stop stop-color="#FD5900"/>
<stop offset="1" stop-color="#FFDE00"/>
</linearGradient>
<linearGradient id="paint1_linear" x1="55" y1="110.453" x2="55" y2="31.1705" gradientUnits="userSpaceOnUse">
<stop stop-color="#FFE59A"/>
<stop offset="1" stop-color="#FFFFD5"/>
</linearGradient>
<clipPath id="clip0">
<rect width="90" height="90" fill="white" transform="matrix(-1 0 0 1 100 31)"/>
</clipPath>
<clipPath id="clip1">
<rect width="48" height="48" fill="white" transform="matrix(-1 0 0 1 152 31)"/>
</clipPath>
</defs>
</svg>
