<svg width="117" height="38" viewBox="0 0 117 38" fill="none" xmlns="http://www.w3.org/2000/svg">
<path d="M6.188 14.924C6.71067 14.196 7.41067 13.6453 8.288 13.272C9.184 12.8987 10.2107 12.712 11.368 12.712V16.744C10.8827 16.7067 10.556 16.688 10.388 16.688C9.13733 16.688 8.15733 17.0427 7.448 17.752C6.73867 18.4427 6.384 19.488 6.384 20.888V28H2.016V12.936H6.188V14.924ZM14.8052 12.936H19.1732V28H14.8052V12.936ZM16.9892 10.836C16.1866 10.836 15.5332 10.6027 15.0292 10.136C14.5252 9.66933 14.2732 9.09067 14.2732 8.4C14.2732 7.70933 14.5252 7.13067 15.0292 6.664C15.5332 6.19733 16.1866 5.964 16.9892 5.964C17.7919 5.964 18.4452 6.188 18.9492 6.636C19.4532 7.084 19.7052 7.644 19.7052 8.316C19.7052 9.044 19.4532 9.65067 18.9492 10.136C18.4452 10.6027 17.7919 10.836 16.9892 10.836ZM28.8551 13.272H32.7191V16.632H28.9671V28H24.5991V16.632H22.2751V13.272H24.5991V12.6C24.5991 10.8827 25.1031 9.52 26.1111 8.512C27.1378 7.504 28.5751 7 30.4231 7C31.0764 7 31.6924 7.07467 32.2711 7.224C32.8684 7.35467 33.3631 7.55067 33.7551 7.812L32.6071 10.976C32.1031 10.6213 31.5151 10.444 30.8431 10.444C29.5178 10.444 28.8551 11.172 28.8551 12.628V13.272ZM41.5378 12.712C43.8711 12.712 45.6631 13.272 46.9138 14.392C48.1644 15.4933 48.7898 17.164 48.7898 19.404V28H44.7018V26.124C43.8804 27.524 42.3498 28.224 40.1098 28.224C38.9524 28.224 37.9444 28.028 37.0858 27.636C36.2458 27.244 35.6018 26.7027 35.1538 26.012C34.7058 25.3213 34.4818 24.5373 34.4818 23.66C34.4818 22.26 35.0044 21.1587 36.0498 20.356C37.1138 19.5533 38.7471 19.152 40.9498 19.152H44.4218C44.4218 18.2 44.1324 17.472 43.5538 16.968C42.9751 16.4453 42.1071 16.184 40.9498 16.184C40.1471 16.184 39.3538 16.3147 38.5698 16.576C37.8044 16.8187 37.1511 17.1547 36.6098 17.584L35.0418 14.532C35.8631 13.9533 36.8431 13.5053 37.9818 13.188C39.1391 12.8707 40.3244 12.712 41.5378 12.712ZM41.2018 25.284C41.9484 25.284 42.6111 25.116 43.1898 24.78C43.7684 24.4253 44.1791 23.912 44.4218 23.24V21.7H41.4258C39.6338 21.7 38.7378 22.288 38.7378 23.464C38.7378 24.024 38.9524 24.472 39.3818 24.808C39.8298 25.1253 40.4364 25.284 41.2018 25.284ZM53.863 13.048H57.363V28H53.863V13.048ZM55.627 10.584C54.9924 10.584 54.4604 10.388 54.031 9.996C53.6017 9.58533 53.387 9.08133 53.387 8.484C53.387 7.88667 53.6017 7.392 54.031 7C54.4604 6.58933 54.9924 6.384 55.627 6.384C56.2617 6.384 56.7937 6.58 57.223 6.972C57.6524 7.34533 57.867 7.82133 57.867 8.4C57.867 9.016 57.6524 9.53867 57.223 9.968C56.8124 10.3787 56.2804 10.584 55.627 10.584ZM67.4168 28.196C66.2034 28.196 65.0181 28.0373 63.8608 27.72C62.7034 27.4027 61.7794 27.0013 61.0888 26.516L62.4328 23.856C63.1048 24.304 63.9074 24.668 64.8408 24.948C65.7928 25.2093 66.7261 25.34 67.6408 25.34C69.7314 25.34 70.7768 24.7893 70.7768 23.688C70.7768 23.1653 70.5061 22.8013 69.9648 22.596C69.4421 22.3907 68.5928 22.1947 67.4168 22.008C66.1848 21.8213 65.1768 21.6067 64.3928 21.364C63.6274 21.1213 62.9554 20.7013 62.3768 20.104C61.8168 19.488 61.5368 18.6387 61.5368 17.556C61.5368 16.1373 62.1248 15.008 63.3008 14.168C64.4954 13.3093 66.1008 12.88 68.1168 12.88C69.1434 12.88 70.1701 13.0013 71.1968 13.244C72.2234 13.468 73.0634 13.776 73.7168 14.168L72.3728 16.828C71.1034 16.0813 69.6754 15.708 68.0888 15.708C67.0621 15.708 66.2781 15.8667 65.7368 16.184C65.2141 16.4827 64.9528 16.884 64.9528 17.388C64.9528 17.948 65.2328 18.3493 65.7928 18.592C66.3714 18.816 67.2581 19.0307 68.4528 19.236C69.6474 19.4227 70.6274 19.6373 71.3928 19.88C72.1581 20.1227 72.8114 20.5333 73.3528 21.112C73.9128 21.6907 74.1928 22.512 74.1928 23.576C74.1928 24.976 73.5861 26.096 72.3728 26.936C71.1594 27.776 69.5074 28.196 67.4168 28.196ZM82.6669 28.196C81.4536 28.196 80.2683 28.0373 79.1109 27.72C77.9536 27.4027 77.0296 27.0013 76.3389 26.516L77.6829 23.856C78.3549 24.304 79.1576 24.668 80.0909 24.948C81.0429 25.2093 81.9763 25.34 82.8909 25.34C84.9816 25.34 86.0269 24.7893 86.0269 23.688C86.0269 23.1653 85.7563 22.8013 85.2149 22.596C84.6923 22.3907 83.8429 22.1947 82.6669 22.008C81.4349 21.8213 80.4269 21.6067 79.6429 21.364C78.8776 21.1213 78.2056 20.7013 77.6269 20.104C77.0669 19.488 76.7869 18.6387 76.7869 17.556C76.7869 16.1373 77.3749 15.008 78.5509 14.168C79.7456 13.3093 81.3509 12.88 83.3669 12.88C84.3936 12.88 85.4203 13.0013 86.4469 13.244C87.4736 13.468 88.3136 13.776 88.9669 14.168L87.6229 16.828C86.3536 16.0813 84.9256 15.708 83.3389 15.708C82.3123 15.708 81.5283 15.8667 80.9869 16.184C80.4643 16.4827 80.2029 16.884 80.2029 17.388C80.2029 17.948 80.4829 18.3493 81.0429 18.592C81.6216 18.816 82.5083 19.0307 83.7029 19.236C84.8976 19.4227 85.8776 19.6373 86.6429 19.88C87.4083 20.1227 88.0616 20.5333 88.6029 21.112C89.1629 21.6907 89.4429 22.512 89.4429 23.576C89.4429 24.976 88.8363 26.096 87.6229 26.936C86.4096 27.776 84.7576 28.196 82.6669 28.196ZM100.017 28.196C98.5051 28.196 97.1424 27.8693 95.9291 27.216C94.7158 26.5627 93.7638 25.6573 93.0731 24.5C92.4011 23.324 92.0651 21.9987 92.0651 20.524C92.0651 19.0493 92.4011 17.7333 93.0731 16.576C93.7638 15.4187 94.7158 14.5133 95.9291 13.86C97.1424 13.2067 98.5051 12.88 100.017 12.88C101.548 12.88 102.92 13.2067 104.133 13.86C105.346 14.5133 106.289 15.4187 106.961 16.576C107.652 17.7333 107.997 19.0493 107.997 20.524C107.997 21.9987 107.652 23.324 106.961 24.5C106.289 25.6573 105.346 26.5627 104.133 27.216C102.92 27.8693 101.548 28.196 100.017 28.196ZM100.017 25.2C101.305 25.2 102.369 24.7707 103.209 23.912C104.049 23.0533 104.469 21.924 104.469 20.524C104.469 19.124 104.049 17.9947 103.209 17.136C102.369 16.2773 101.305 15.848 100.017 15.848C98.7291 15.848 97.6651 16.2773 96.8251 17.136C96.0038 17.9947 95.5931 19.124 95.5931 20.524C95.5931 21.924 96.0038 23.0533 96.8251 23.912C97.6651 24.7707 98.7291 25.2 100.017 25.2Z" fill="black"/>
<path d="M85 9.55556V4C85 2.89543 85.8954 2 87 2H113.222C114.327 2 115.222 2.89543 115.222 4V34C115.222 35.1046 114.327 36 113.222 36H87C85.8954 36 85 35.1046 85 34V30.3333" stroke="#6D4AFB" stroke-width="2.5"/>
</svg>
